{
    "KPlugin": {
        "Authors": [
            {
                "Email": "albertvaka@gmail.com",
                "Name": "Albert Vaca Cintora",
                "Name[ar]": "ألبرت فاكا سينتورا",
                "Name[az]": "Albert Vaca Cintora",
                "Name[bg]": "Albert Vaca Cintora",
                "Name[ca@valencia]": "Albert Vaca Cintora",
                "Name[ca]": "Albert Vaca Cintora",
                "Name[cs]": "Albert Vaca Cintora",
                "Name[de]": "Albert Vaca Cintora",
                "Name[en_GB]": "Albert Vaca Cintora",
                "Name[es]": "Albert Vaca Cintora",
                "Name[fi]": "Albert Vaca Cintora",
                "Name[fr]": "Albert Vaca Cintora",
                "Name[gl]": "Albert Vaca Cintora",
                "Name[ia]": "Albert Vaca Cintora",
                "Name[it]": "Albert Vaca Cintora",
                "Name[ka]": "Albert Vaca Cintora",
                "Name[ko]": "Albert Vaca Cintora",
                "Name[nl]": "Albert Vaca Cintora",
                "Name[pl]": "Albert Vaca Cintora",
                "Name[pt]": "Albert Vaca Cintora",
                "Name[sl]": "Albert Vaca Cintora",
                "Name[tr]": "Albert Vaca Cintora",
                "Name[uk]": "Albert Vaca Cintora",
                "Name[x-test]": "xxAlbert Vaca Cintoraxx",
                "Name[zh_CN]": "Albert Vaca Cintora"
            }
        ],
        "Description": "Show device's notifications on this computer and keep them in sync",
        "Description[ar]": "أظهر إخطارات الجهاز على هذا الحاسوب وأبقها متزامنة",
        "Description[az]": "Cihaz bildirişlərini bu komputerdə göstərmək və onları eyniləşdirmək",
        "Description[bg]": "Показване и синхронизиране на известията на устройството с този компютър",
        "Description[ca@valencia]": "Mostra les notificacions del dispositiu en l'ordinador i les manté sincronitzades",
        "Description[ca]": "Mostra les notificacions del dispositiu a l'ordinador i les manté sincronitzades",
        "Description[cs]": "Zobrazit oznámení telefonu v počítači a udržovat je synchronizovaná",
        "Description[da]": "Vis enhedens bekendtgørelser på denne computer og hold dem synkroniseret",
        "Description[de]": "Benachrichtigungen des Geräts auf diesem Rechner anzeigen und abgleichen",
        "Description[el]": "Εμφάνιση ειδοποιήσεων συσκευής στον υπολογιστή αυτόν και συγχρονισμός τους",
        "Description[en_GB]": "Show device's notifications on this computer and keep them in sync",
        "Description[es]": "Mostrar notificaciones del dispositivo en este equipo y mantenerlas en sincronía",
        "Description[et]": "Seadme märguannete näitamine arvutis ja nende sünkroonis hoidmine",
        "Description[eu]": "Erakutsi gailuaren jakinarazpenak ordenagailu honetan eta mantendu sinkronizatuta",
        "Description[fi]": "Näytä laitteen ilmoitukset tällä tietokoneella ja pidä ne ajan tasalla",
        "Description[fr]": "Affichez les notifications du téléphone sur l'ordinateur et synchronisez-les",
        "Description[gl]": "Mostrar as notificacións do dispositivo neste computador e mantelas sincronizadas",
        "Description[hu]": "Az eszköz értesítéseinek megjelenítése a számítógépen és azok szinkronizációja",
        "Description[ia]": "Monstra notificationes de dispositivo sur iste computator e manene los in synchro",
        "Description[id]": "Tampilkan notifikasi peranti pada komputer ini dan menjaganya tetap tersinkron",
        "Description[is]": "Sýna tilkynningar tækisins á þessari tölvu og halda þeim samstilltum",
        "Description[it]": "Mostra le notifiche del telefono sul tuo computer e tienile sincronizzate",
        "Description[ka]": "კომპიუტერზე მოწყობილობის გაფრთხილებების ჩვენება და მათი სინქრონიზაცია",
        "Description[ko]": "휴대폰 알림을 컴퓨터에 표시하고 동기화하기",
        "Description[lt]": "Rodyti įrenginio pranešimus šiame kompiuteryje ir išlaikyti juos sinchronizuotus",
        "Description[nl]": "Apparaatmeldingen op deze computer tonen en ze gesynchroniseerd houden",
        "Description[nn]": "Vis telefonvarslingar på datamaskina og hald dei synkronisert",
        "Description[pl]": "Pokazuje powiadomienia innego urządzenia na tym urządzeniu",
        "Description[pt]": "Mostrar as notificações do dispositivo neste computador e mantê-las sincronizadas",
        "Description[pt_BR]": "Mostra as notificações do aparelho neste computador e as mantém sincronizadas",
        "Description[ro]": "Arată notificările dispozitivului pe acest calculator și păstrează-le sincronizate",
        "Description[ru]": "Просмотр уведомлений с устройства на компьютере и их синхронизация",
        "Description[sk]": "Zobrazenie oznámení telefónu na tomto počítači a zachovanie ich synchronizácie",
        "Description[sl]": "Prikažite obvestila naprave na tem računalniku in jih ohranjajte usklajene",
        "Description[sr@ijekavian]": "Приказује обавештења са уређаја на рачунару и одржава их ажурним",
        "Description[sr@ijekavianlatin]": "Prikazuje obaveštenja sa uređaja na računaru i održava ih ažurnim",
        "Description[sr@latin]": "Prikazuje obaveštenja sa uređaja na računaru i održava ih ažurnim",
        "Description[sr]": "Приказује обавештења са уређаја на рачунару и одржава их ажурним",
        "Description[sv]": "Visa enhetens underrättelser på datorn och håll dem synkroniserade",
        "Description[tr]": "Aygıtın bildirimlerini bilgisayarda göster ve eşzamanlı tut",
        "Description[uk]": "Показ сповіщень з пристрою на цьому комп’ютері та підтримання синхронізації даних сповіщень",
        "Description[x-test]": "xxShow device's notifications on this computer and keep them in syncxx",
        "Description[zh_CN]": "在电脑显示手机通知并保持同步",
        "Description[zh_TW]": "在電腦上顯示裝置通知並且保持同步",
        "EnabledByDefault": true,
        "Icon": "preferences-desktop-notification",
        "Id": "kdeconnect_notifications",
        "License": "GPL",
        "Name": "Receive notifications",
        "Name[ar]": "استقبل الإخطارات",
        "Name[az]": "Bildirişləri almaq",
        "Name[bg]": "Получаване на известия",
        "Name[ca@valencia]": "Recepció de les notificacions",
        "Name[ca]": "Recepció de les notificacions",
        "Name[cs]": "Přijímat oznámení",
        "Name[da]": "Modtag bekendtgørelser",
        "Name[de]": "Benachrichtigungen empfangen",
        "Name[el]": "Λήψη ειδοποιήσεων",
        "Name[en_GB]": "Receive notifications",
        "Name[es]": "Recibir notificaciones",
        "Name[et]": "Märguannete vastuvõtmine",
        "Name[eu]": "Jaso jakinarazpenak",
        "Name[fi]": "Vastaanota ilmoituksia",
        "Name[fr]": "Recevoir les notifications",
        "Name[gl]": "Recibir notificacións",
        "Name[hu]": "Értesítések fogadása",
        "Name[ia]": "Recipe notificationes",
        "Name[id]": "Terima notifikasi",
        "Name[is]": "Taka á móti tilkynningum",
        "Name[it]": "Ricevi notifiche",
        "Name[ja]": "通知の受信",
        "Name[ka]": "გაფრთხილებებს მიღება",
        "Name[ko]": "알림 받기",
        "Name[lt]": "Gauti pranešimus",
        "Name[nl]": "Meldingen ontvangen",
        "Name[nn]": "Få varslingar",
        "Name[pl]": "Otrzymywanie powiadomień",
        "Name[pt]": "Receber as notificações",
        "Name[pt_BR]": "Receber notificações",
        "Name[ro]": "Primește notificări",
        "Name[ru]": "Получение уведомлений",
        "Name[sk]": "Prijímať upozornenia",
        "Name[sl]": "Prejemaj obvestila",
        "Name[sr@ijekavian]": "Пријем обавештења",
        "Name[sr@ijekavianlatin]": "Prijem obaveštenja",
        "Name[sr@latin]": "Prijem obaveštenja",
        "Name[sr]": "Пријем обавештења",
        "Name[sv]": "Ta emot underrättelser",
        "Name[tr]": "Bildirimleri al",
        "Name[uk]": "Отримати сповіщення",
        "Name[x-test]": "xxReceive notificationsxx",
        "Name[zh_CN]": "接收通知",
        "Name[zh_TW]": "接收通知",
        "ServiceTypes": [
            "KdeConnect/Plugin"
        ],
        "Version": "0.1",
        "Website": "https://albertvaka.wordpress.com"
    },
    "X-KdeConnect-OutgoingPacketType": [
        "kdeconnect.notification.request",
        "kdeconnect.notification.reply",
        "kdeconnect.notification.action"
    ],
    "X-KdeConnect-SupportedPacketType": [
        "kdeconnect.notification"
    ]
}
